<?xml version="1.0" encoding="UTF-8" standalone="no"?>
<!-- Generator: Adobe Illustrator 16.0.0, SVG Export Plug-In . SVG Version: 6.00 Build 0)  -->

<svg
   version="1.1"
   id="Layer_1"
   x="0px"
   y="0px"
   width="280px"
   height="279.416px"
   viewBox="340 140 280 279.416"
   enable-background="new 340 140 280 279.416"
   xml:space="preserve"
   sodipodi:docname="pralin.svg"
   inkscape:version="1.2.2 (b0a8486541, 2022-12-01)"
   inkscape:export-filename="pralin.png"
   inkscape:export-xdpi="10.971429"
   inkscape:export-ydpi="10.971429"
   xmlns:inkscape="http://www.inkscape.org/namespaces/inkscape"
   xmlns:sodipodi="http://sodipodi.sourceforge.net/DTD/sodipodi-0.dtd"
   xmlns="http://www.w3.org/2000/svg"
   xmlns:svg="http://www.w3.org/2000/svg"><defs
   id="defs1394"><mask
     maskUnits="userSpaceOnUse"
     id="mask510"><g
       id="g522"><path
         style="opacity:1;fill:none;stroke:#ffffff;stroke-width:7.55906"
         d="m 85.945081,183.2958 c 51.941769,27.60598 107.129689,27.85674 162.450359,-0.62706"
         id="path512"
         sodipodi:nodetypes="cc" /><path
         style="opacity:1;fill:none;stroke:#ffffff;stroke-width:7.55906"
         d="M 103.74474,191.63342 C 141.4748,170.1948 183.11076,165.81149 236.35586,170.00641"
         id="path514"
         sodipodi:nodetypes="cc" /><path
         style="opacity:1;fill:none;stroke:#ffffff;stroke-width:7.559;stroke-linecap:round;stroke-dasharray:none"
         d="m 94.95277,170.96541 c 0,0 27.7471,-2.86819 51.60901,21.02589 23.86191,23.89409 23.70192,105.51176 23.70192,105.51176"
         id="path516"
         sodipodi:nodetypes="czc" /><path
         style="fill:none;stroke:#ffffff;stroke-width:7.559;stroke-linecap:round;stroke-dasharray:none"
         d="m 116.16979,159.73024 c 0,0 34.6283,-0.57446 58.49021,23.31962 23.86191,23.89409 29.81854,92.51393 29.81854,92.51393"
         id="path518"
         sodipodi:nodetypes="czc" /><path
         style="fill:none;stroke:#ffffff;stroke-width:7.559;stroke-linecap:round;stroke-dasharray:none"
         d="m 154.39869,150.55529 c 0,0 28.12939,3.63073 51.9913,27.52481 23.86191,23.89409 28.67168,92.13165 28.67168,92.13165"
         id="path520"
         sodipodi:nodetypes="czc" /></g></mask></defs><sodipodi:namedview
   id="namedview1392"
   pagecolor="#ffffff"
   bordercolor="#000000"
   borderopacity="0.25"
   inkscape:showpageshadow="2"
   inkscape:pageopacity="0.0"
   inkscape:pagecheckerboard="0"
   inkscape:deskcolor="#d1d1d1"
   showgrid="false"
   inkscape:zoom="0.31441611"
   inkscape:cx="-505.69927"
   inkscape:cy="554.997"
   inkscape:window-width="1536"
   inkscape:window-height="792"
   inkscape:window-x="0"
   inkscape:window-y="0"
   inkscape:window-maximized="1"
   inkscape:current-layer="Layer_1" />
<path
   d="M620,305.666v-51.333l-31.5-5.25c-2.333-8.75-5.833-16.917-9.917-23.917L597.25,199.5l-36.167-36.75l-26.25,18.083  c-7.583-4.083-15.75-7.583-23.916-9.917L505.667,140h-51.334l-5.25,31.5c-8.75,2.333-16.333,5.833-23.916,9.916L399.5,163.333  L362.75,199.5l18.667,25.666c-4.083,7.584-7.583,15.75-9.917,24.5l-31.5,4.667v51.333l31.5,5.25  c2.333,8.75,5.833,16.334,9.917,23.917l-18.667,26.25l36.167,36.167l26.25-18.667c7.583,4.083,15.75,7.583,24.5,9.917l5.25,30.916  h51.333l5.25-31.5c8.167-2.333,16.333-5.833,23.917-9.916l26.25,18.666l36.166-36.166l-18.666-26.25  c4.083-7.584,7.583-15.167,9.916-23.917L620,305.666z M480,333.666c-29.75,0-53.667-23.916-53.667-53.666s24.5-53.667,53.667-53.667  S533.667,250.25,533.667,280S509.75,333.666,480,333.666z"
   id="path1389" />
<g
   id="g3810"
   transform="matrix(0.9686079,0,0,0.9686079,320.36239,52.203856)"
   style="stroke-width:14.45373303;stroke-dasharray:none"><path
     style="opacity:1;fill:#000000;stroke:#ffffff;stroke-width:14.45373303;paint-order:stroke fill markers;stroke-dasharray:none"
     d="M 87.9439,179.84243 74.12687,282.77597 c -0.31925,9.25605 60.23093,29.13956 94.22743,28.62466 33.14666,-0.50203 91.35732,-19.7581 91.25571,-30.29946 L 245.69385,179.15931 C 192.77264,148.43883 141.11853,147.67433 87.9439,179.84243 Z"
     id="path1471"
     sodipodi:nodetypes="ccsccc" /><path
     style="fill:#ffffff;stroke:none;stroke-width:14.4537;stroke-dasharray:none"
     d="M 87.9439,179.84243 74.12687,282.77597 c -0.31925,9.25605 60.23093,29.13956 94.22743,28.62466 33.14666,-0.50203 91.35732,-19.7581 91.25571,-30.29946 L 245.69385,179.15931 C 192.77264,148.43883 141.11853,147.67433 87.9439,179.84243 Z"
     id="path1471-2"
     sodipodi:nodetypes="ccsccc"
     mask="url(#mask510)" /></g></svg>
